<svg width="20" height="26" viewBox="0 0 20 26" fill="none" xmlns="http://www.w3.org/2000/svg">
<path d="M18.4989 6.50779V25H5.11461C2.83982 25 1 23.1602 1 20.8854V1.60547H13.5907" stroke="#171321" stroke-width="2" stroke-miterlimit="10"/>
<path d="M13.4791 1V6.61942H19.0985V6.39612L13.7024 1H13.4791Z" fill="#7759C2"/>
<path d="M5.10876 9.49377H14.8075" stroke="#171321" stroke-width="2" stroke-miterlimit="10"/>
<path d="M5.10876 13.6848H14.8075" stroke="#171321" stroke-width="2" stroke-miterlimit="10"/>
<path d="M5.10876 17.8701H10.0992" stroke="#171321" stroke-width="2" stroke-miterlimit="10"/>
</svg>
